%YAML 1.1
%TAG !u! tag:unity3d.com,2011:
--- !u!1045 &1
EditorBuildSettings:
  m_ObjectHideFlags: 0
  serializedVersion: 2
  m_Scenes:
  - enabled: 1
    path: Assets/Scenes/A_Titulo.unity
    guid: dcab031f4917e5b4fb742e56377d3761
  - enabled: 1
    path: Assets/Scenes/nivel_1.unity
    guid: 8f2ebf508b7b51d4e90b7ea325b82d6e
  - enabled: 1
    path: Assets/Scenes/nivel_2.unity
    guid: 2cda990e2423bbf4892e6590ba056729
  - enabled: 1
    path: Assets/Scenes/nivel_3.unity
    guid: f3e5057d3dcde244b9ead8508a1deaef
  m_configObjects: {}
